Tidyverse Packages for Data Science
…
Hopefully your internet speed is good because readr will import that file very fast. Let’s check what the tibble view looks like on this file:

ct

# A tibble: 2,502,832 × 6
   date       county      state      fips  cases deaths
   <date>     <chr>       <chr>      <chr> <dbl>  <dbl>
 1 2020-01-21 Snohomish   Washington 53061     1      0
 2 2020-01-22 Snohomish   Washington 53061     1      0
 3 2020-01-23 Snohomish   Washington 53061     1      0
 4 2020-01-24 Cook        Illinois   17031     1      0
 5 2020-01-24 Snohomish   Washington 53061     1      0
 6 2020-01-25 Orange      California 06059     1      0
 7 2020-01-25 Cook        Illinois   17031     1      0
 8 2020-01-25 Snohomish   Washington 53061     1      0
 9 2020-01-26 Maricopa    Arizona    04013     1      0
10 2020-01-26 Los Angeles California 06037     1      0
# … with 2,502,822 more rows

3. Exploring Data with dplyr

3.1 Using Pipes

If you are familiar with the pipe function in Unix (|), the R pipe works similarly (albeit it uses a different symbol). The goal is to use output from one command and pass it onto another function. Just like the Unix pipe, the R pipe can also be nested as many times as you want. We will see some examples below.

What if you wanted to print 15 rows of data from the above tibble to the screen?

ct %>% print(n=15, width=Inf)

# A tibble: 2,502,832 × 6
   date       county      state      fips  cases deaths
   <date>     <chr>       <chr>      <chr> <dbl>  <dbl>
 1 2020-01-21 Snohomish   Washington 53061     1      0
 2 2020-01-22 Snohomish   Washington 53061     1      0
 3 2020-01-23 Snohomish   Washington 53061     1      0
 4 2020-01-24 Cook        Illinois   17031     1      0
 5 2020-01-24 Snohomish   Washington 53061     1      0
 6 2020-01-25 Orange      California 06059     1      0
 7 2020-01-25 Cook        Illinois   17031     1      0
 8 2020-01-25 Snohomish   Washington 53061     1      0
 9 2020-01-26 Maricopa    Arizona    04013     1      0
10 2020-01-26 Los Angeles California 06037     1      0
11 2020-01-26 Orange      California 06059     1      0
12 2020-01-26 Cook        Illinois   17031     1      0
13 2020-01-26 Snohomish   Washington 53061     1      0
14 2020-01-27 Maricopa    Arizona    04013     1      0
15 2020-01-27 Los Angeles California 06037     1      0
# … with 2,502,817 more rows
In the example above, we used Inf option for the width of the tibble. Because this tibble is small, it fits comfortable on our screen. However, if your tibble was much wider than this, you could restrict the width to match that of your display. For example, try the following three commands and try to notice the differences between the three outputs:

ct %>% print(n=15, width=50)

ct %>% print(n=15, width=25)

ct %>% print(n=15, width=20)

What was different about the outputs?

If you wanted to find out how many different states have been represented in this data set:

ct %>% count(state)

# A tibble: 56 × 2
   state                    n
   <chr>                <int>
 1 Alabama              52312
 2 Alaska               20568
 3 American Samoa         239
 4 Arizona              11934
 5 Arkansas             59032
 6 California           45693
 7 Colorado             49527
 8 Connecticut           7091
 9 Delaware              3131
10 District of Columbia   798
# … with 46 more rows
…
3.2 Accessing Specific Data From Tibbles

Let’s say we wish to access data from Nevada.

ct %>% filter(state=="Nevada")

# A tibble: 12,867 × 6
   date       county state  fips  cases deaths
   <date>     <chr>  <chr>  <chr> <dbl>  <dbl>
 1 2020-03-05 Clark  Nevada 32003     1      0
 2 2020-03-05 Washoe Nevada 32031     1      0
 3 2020-03-06 Clark  Nevada 32003     1      0
 4 2020-03-06 Washoe Nevada 32031     1      0
 5 2020-03-07 Clark  Nevada 32003     1      0
 6 2020-03-07 Washoe Nevada 32031     1      0
 7 2020-03-08 Clark  Nevada 32003     2      0
 8 2020-03-08 Washoe Nevada 32031     2      0
 9 2020-03-09 Clark  Nevada 32003     2      0
10 2020-03-09 Washoe Nevada 32031     2      0
# … with 12,857 more rows

What if you want to print 20 rows of data from Nevada?

ct %>% filter(state=="Nevada") %>% print(n=20)

Try the same command on any other state or territory:

ct %>% filter(state=="Puerto Rico") %>% print(n=20)
# A tibble: 58,397 × 6
   date       county  state       fips  cases deaths
   <date>     <chr>   <chr>       <chr> <dbl>  <dbl>
 1 2020-03-13 Unknown Puerto Rico NA        3      0
 2 2020-03-14 Unknown Puerto Rico NA        4      0
 3 2020-03-15 Unknown Puerto Rico NA        5      0
 4 2020-03-16 Unknown Puerto Rico NA        5      0
 5 2020-03-17 Unknown Puerto Rico NA        5      0
 6 2020-03-18 Unknown Puerto Rico NA        5      0
 7 2020-03-19 Unknown Puerto Rico NA        6      0
 8 2020-03-20 Unknown Puerto Rico NA       14      0
 9 2020-03-21 Unknown Puerto Rico NA       21      1
10 2020-03-22 Unknown Puerto Rico NA       23      1
11 2020-03-23 Unknown Puerto Rico NA       31      2
12 2020-03-24 Unknown Puerto Rico NA       39      2
13 2020-03-25 Unknown Puerto Rico NA       51      2
14 2020-03-26 Unknown Puerto Rico NA       64      2
15 2020-03-27 Unknown Puerto Rico NA       79      3
16 2020-03-28 Unknown Puerto Rico NA      100      3
17 2020-03-29 Unknown Puerto Rico NA      127      5
18 2020-03-30 Unknown Puerto Rico NA      174      6
19 2020-03-31 Unknown Puerto Rico NA      239      8
20 2020-04-01 Unknown Puerto Rico NA      286     11
# … with 58,377 more rows

What if you only want to print the following columns from Hawaii: date, state, county and cases?

ct %>% filter(state=="Hawaii") %>% select(1:2, 5:6)

# A tibble: 3,982 × 4
   date       county   cases deaths
   <date>     <chr>    <dbl>  <dbl>
 1 2020-03-06 Honolulu     1      0
 2 2020-03-07 Honolulu     1      0
 3 2020-03-08 Honolulu     2      0
 4 2020-03-09 Honolulu     2      0
 5 2020-03-10 Honolulu     2      0
 6 2020-03-11 Honolulu     2      0
 7 2020-03-12 Honolulu     2      0
 8 2020-03-13 Honolulu     2      0
 9 2020-03-14 Honolulu     2      0
10 2020-03-14 Kauai        2      0
# … with 3,972 more rows

Notice that we used column numbers above instead of their names. But of course, you could achieve the same result using names:

ct %>% filter(state=="Hawaii") %>% select("date", "county", "cases", "deaths")

Repeat the last command with California:

ct %>% filter(state=="California") %>% select("date", "county", "cases", "deaths") 

# A tibble: 45,693 × 4
   date       county      cases deaths
   <date>     <chr>       <dbl>  <dbl>
 1 2020-01-25 Orange          1      0
 2 2020-01-26 Los Angeles     1      0
 3 2020-01-26 Orange          1      0
 4 2020-01-27 Los Angeles     1      0
 5 2020-01-27 Orange          1      0
 6 2020-01-28 Los Angeles     1      0
 7 2020-01-28 Orange          1      0
 8 2020-01-29 Los Angeles     1      0
 9 2020-01-29 Orange          1      0
10 2020-01-30 Los Angeles     1      0
# … with 45,683 more rows
…
It seems that one of the counties has disproportionately higher number of cases. How would we find out what county that is?

ct %>% filter(state == "California") %>% filter(cases > 2e+06)

# A tibble: 124 × 6
   date       county      state      fips    cases deaths
   <date>     <chr>       <chr>      <chr>   <dbl>  <dbl>
 1 2022-01-10 Los Angeles California 06037 2011668  27798
 2 2022-01-11 Los Angeles California 06037 2046912  27812
 3 2022-01-12 Los Angeles California 06037 2087285  27850
 4 2022-01-13 Los Angeles California 06037 2132227  27985
 5 2022-01-14 Los Angeles California 06037 2172712  27985
 6 2022-01-15 Los Angeles California 06037 2214368  28008
 7 2022-01-16 Los Angeles California 06037 2258206  28059
 8 2022-01-17 Los Angeles California 06037 2289749  28086
 9 2022-01-18 Los Angeles California 06037 2312272  28122
10 2022-01-19 Los Angeles California 06037 2344525  28181
# … with 114 more rows
…
A quick eyeballing points likely to the same county for largest number of deaths. Just to verify:

ct %>% filter(state == "California") %>% filter(deaths > 30000)

# A tibble: 87 × 6
   date       county      state      fips    cases deaths
   <date>     <chr>       <chr>      <chr>   <dbl>  <dbl>
 1 2022-02-16 Los Angeles California 06037 2770076  30081
 2 2022-02-17 Los Angeles California 06037 2773273  30146
 3 2022-02-18 Los Angeles California 06037 2777869  30216
 4 2022-02-19 Los Angeles California 06037 2781027  30300
 5 2022-02-20 Los Angeles California 06037 2783657  30356
 6 2022-02-21 Los Angeles California 06037 2784980  30376
 7 2022-02-22 Los Angeles California 06037 2786153  30411
 8 2022-02-23 Los Angeles California 06037 2788063  30447
 9 2022-02-24 Los Angeles California 06037 2789996  30519
10 2022-02-25 Los Angeles California 06037 2792334  30587
# … with 77 more rows
…
